{
  "SECRET": "",
  "API_URL": "",
  "DECRYPT_ENABLED": true,
  "DECRYPT_PASSPHRASE": "",
  "STORAGE_TYPE": "local",
  "STORAGE_LOCAL_FOLDER": "",
  "STORAGE_AZURE_CONNECTION_STRING": "",
  "STORAGE_AZURE_STORAGE_TYPE": "",
  "STORAGE_AZURE_STORAGE_NAME": "",
  "SOURCE_DELETE_ON_SUCCESS_ENABLED": false,
  "TIME": "",
  "CURSOR": "",
  "Length": 0
}
